{
  "Resolution": {
    "width": 1920,
    "height": 1080,
    "refreshRate": 60
  },
  "Fullscreen": false,
  "Shadows": false,
  "OverallVideoSettings": 4,
  "AntiAliasing": 0,
  "PixelLightCount": 6,
  "MasterTextureLimit": 0,
  "BloomStrength": 0,
  "MotionBlur": false,
  "MotionBlurShutterAngle": 140.0,
  "MotionBlurSampleCount": 8,
  "AnisotropicFiltering": 0,
  "SoftVegetation": false,
  "VSyncCount": 0,
  "LodBias": 1.0,
  "RenderDistanceBias": 1.0,
  "GUIScale": 1.0
}
-
{
  "ChatBounds": {
    "x": 0.0,
    "y": -198.0,
    "position": {
      "x": 0.0,
      "y": -198.0,
      "normalized": {
        "x": 0.0,
        "y": -1.0,
        "magnitude": 1.0,
        "sqrMagnitude": 1.0
      },
      "magnitude": 198.0,
      "sqrMagnitude": 39204.0
    },
    "center": {
      "x": 172.5,
      "y": -98.0,
      "normalized": {
        "x": 0.869481146,
        "y": -0.4939661,
        "magnitude": 1.0,
        "sqrMagnitude": 1.0
      },
      "magnitude": 198.39418,
      "sqrMagnitude": 39360.25
    },
    "min": {
      "x": 0.0,
      "y": -198.0,
      "normalized": {
        "x": 0.0,
        "y": -1.0,
        "magnitude": 1.0,
        "sqrMagnitude": 1.0
      },
      "magnitude": 198.0,
      "sqrMagnitude": 39204.0
    },
    "max": {
      "x": 345.0,
      "y": 2.0,
      "normalized": {
        "x": 0.9999832,
        "y": 0.005797004,
        "magnitude": 1.0,
        "sqrMagnitude": 1.0
      },
      "magnitude": 345.0058,
      "sqrMagnitude": 119029.0
    },
    "width": 345.0,
    "height": 200.0,
    "size": {
      "x": 345.0,
      "y": 200.0,
      "normalized": {
        "x": 0.86514,
        "y": 0.5015304,
        "magnitude": 1.0,
        "sqrMagnitude": 1.0
      },
      "magnitude": 398.7794,
      "sqrMagnitude": 159025.0
    },
    "xMin": 0.0,
    "yMin": -198.0,
    "xMax": 345.0,
    "yMax": 2.0,
    "left": 0.0,
    "right": 345.0,
    "top": -198.0,
    "bottom": 2.0
  },
  "ChatMinimized": false,
  "ModBounds": {
    "x": 0.0,
    "y": 0.0,
    "position": {
      "x": 0.0,
      "y": 0.0,
      "magnitude": 0.0,
      "sqrMagnitude": 0.0
    },
    "center": {
      "x": 130.5,
      "y": 364.5,
      "normalized": {
        "x": 0.3370726,
        "y": 0.9414786,
        "normalized": {
          "x": 0.337072641,
          "y": 0.94147867,
          "magnitude": 1.0,
          "sqrMagnitude": 1.0
        },
        "magnitude": 0.99999994,
        "sqrMagnitude": 0.99999994
      },
      "magnitude": 387.156952,
      "sqrMagnitude": 149890.5
    },
    "min": {
      "x": 0.0,
      "y": 0.0,
      "magnitude": 0.0,
      "sqrMagnitude": 0.0
    },
    "max": {
      "x": 261.0,
      "y": 729.0,
      "normalized": {
        "x": 0.3370726,
        "y": 0.9414786,
        "normalized": {
          "x": 0.337072641,
          "y": 0.94147867,
          "magnitude": 1.0,
          "sqrMagnitude": 1.0
        },
        "magnitude": 0.99999994,
        "sqrMagnitude": 0.99999994
      },
      "magnitude": 774.3139,
      "sqrMagnitude": 599562.0
    },
    "width": 261.0,
    "height": 729.0,
    "size": {
      "x": 261.0,
      "y": 729.0,
      "normalized": {
        "x": 0.3370726,
        "y": 0.9414786,
        "normalized": {
          "x": 0.337072641,
          "y": 0.94147867,
          "magnitude": 1.0,
          "sqrMagnitude": 1.0
        },
        "magnitude": 0.99999994,
        "sqrMagnitude": 0.99999994
      },
      "magnitude": 774.3139,
      "sqrMagnitude": 599562.0
    },
    "xMin": 0.0,
    "yMin": 0.0,
    "xMax": 261.0,
    "yMax": 729.0,
    "left": 0.0,
    "right": 261.0,
    "top": 0.0,
    "bottom": 729.0
  },
  "ModMinimized": true,
  "ChatOpacity": 1.0,
  "PreferredHotbarWidth": 0.0,
  "MouselookSensitivity": 5.0
}
